<?xml version="1.0" encoding="utf-8"?>
<!DOCTYPE eagle SYSTEM "eagle.dtd">
<eagle version="7.5.0">
<drawing>
<settings>
<setting alwaysvectorfont="no"/>
<setting verticaltext="up"/>
</settings>
<grid distance="0.1" unitdist="inch" unit="mil" style="lines" multiple="1" display="no" altdistance="0.01" altunitdist="inch" altunit="inch"/>
<layers>
<layer number="1" name="Top" color="4" fill="1" visible="yes" active="yes"/>
<layer number="2" name="Route2" color="1" fill="3" visible="no" active="yes"/>
<layer number="3" name="Route3" color="4" fill="3" visible="no" active="yes"/>
<layer number="4" name="Route4" color="1" fill="4" visible="no" active="yes"/>
<layer number="5" name="Route5" color="4" fill="4" visible="no" active="yes"/>
<layer number="6" name="Route6" color="1" fill="8" visible="no" active="yes"/>
<layer number="7" name="Route7" color="4" fill="8" visible="no" active="yes"/>
<layer number="8" name="Route8" color="1" fill="2" visible="no" active="yes"/>
<layer number="9" name="Route9" color="4" fill="2" visible="no" active="yes"/>
<layer number="10" name="Route10" color="1" fill="7" visible="no" active="yes"/>
<layer number="11" name="Route11" color="4" fill="7" visible="no" active="yes"/>
<layer number="12" name="Route12" color="1" fill="5" visible="no" active="yes"/>
<layer number="13" name="Route13" color="4" fill="5" visible="no" active="yes"/>
<layer number="14" name="Route14" color="1" fill="6" visible="no" active="yes"/>
<layer number="15" name="Route15" color="4" fill="6" visible="no" active="yes"/>
<layer number="16" name="Bottom" color="1" fill="1" visible="yes" active="yes"/>
<layer number="17" name="Pads" color="2" fill="1" visible="yes" active="yes"/>
<layer number="18" name="Vias" color="2" fill="1" visible="yes" active="yes"/>
<layer number="19" name="Unrouted" color="6" fill="1" visible="yes" active="yes"/>
<layer number="20" name="Dimension" color="15" fill="1" visible="yes" active="yes"/>
<layer number="21" name="tPlace" color="7" fill="1" visible="yes" active="yes"/>
<layer number="22" name="bPlace" color="7" fill="1" visible="yes" active="yes"/>
<layer number="23" name="tOrigins" color="15" fill="1" visible="yes" active="yes"/>
<layer number="24" name="bOrigins" color="15" fill="1" visible="yes" active="yes"/>
<layer number="25" name="tNames" color="7" fill="1" visible="yes" active="yes"/>
<layer number="26" name="bNames" color="7" fill="1" visible="yes" active="yes"/>
<layer number="27" name="tValues" color="7" fill="1" visible="yes" active="yes"/>
<layer number="28" name="bValues" color="7" fill="1" visible="yes" active="yes"/>
<layer number="29" name="tStop" color="7" fill="3" visible="no" active="yes"/>
<layer number="30" name="bStop" color="7" fill="6" visible="no" active="yes"/>
<layer number="31" name="tCream" color="7" fill="4" visible="no" active="yes"/>
<layer number="32" name="bCream" color="7" fill="5" visible="no" active="yes"/>
<layer number="33" name="tFinish" color="6" fill="3" visible="no" active="yes"/>
<layer number="34" name="bFinish" color="6" fill="6" visible="no" active="yes"/>
<layer number="35" name="tGlue" color="7" fill="4" visible="no" active="yes"/>
<layer number="36" name="bGlue" color="7" fill="5" visible="no" active="yes"/>
<layer number="37" name="tTest" color="7" fill="1" visible="no" active="yes"/>
<layer number="38" name="bTest" color="7" fill="1" visible="no" active="yes"/>
<layer number="39" name="tKeepout" color="4" fill="11" visible="yes" active="yes"/>
<layer number="40" name="bKeepout" color="1" fill="11" visible="yes" active="yes"/>
<layer number="41" name="tRestrict" color="4" fill="10" visible="yes" active="yes"/>
<layer number="42" name="bRestrict" color="1" fill="10" visible="yes" active="yes"/>
<layer number="43" name="vRestrict" color="2" fill="10" visible="yes" active="yes"/>
<layer number="44" name="Drills" color="7" fill="1" visible="no" active="yes"/>
<layer number="45" name="Holes" color="7" fill="1" visible="no" active="yes"/>
<layer number="46" name="Milling" color="3" fill="1" visible="no" active="yes"/>
<layer number="47" name="Measures" color="7" fill="1" visible="no" active="yes"/>
<layer number="48" name="Document" color="7" fill="1" visible="yes" active="yes"/>
<layer number="49" name="Reference" color="7" fill="1" visible="yes" active="yes"/>
<layer number="51" name="tDocu" color="7" fill="1" visible="yes" active="yes"/>
<layer number="52" name="bDocu" color="7" fill="1" visible="yes" active="yes"/>
<layer number="90" name="Modules" color="5" fill="1" visible="yes" active="yes"/>
<layer number="91" name="Nets" color="2" fill="1" visible="yes" active="yes"/>
<layer number="92" name="Busses" color="1" fill="1" visible="yes" active="yes"/>
<layer number="93" name="Pins" color="2" fill="1" visible="yes" active="yes"/>
<layer number="94" name="Symbols" color="4" fill="1" visible="yes" active="yes"/>
<layer number="95" name="Names" color="7" fill="1" visible="yes" active="yes"/>
<layer number="96" name="Values" color="7" fill="1" visible="yes" active="yes"/>
<layer number="97" name="Info" color="7" fill="1" visible="yes" active="yes"/>
<layer number="98" name="Guide" color="6" fill="1" visible="yes" active="yes"/>
</layers>
<library>
<packages>
<package name="TO127P254X732-3">
<pad name="1" x="-2.54" y="-2.54" drill="0.9906" shape="square"/>
<pad name="2" x="-1.27" y="0" drill="0.9906"/>
<pad name="3" x="0" y="-2.54" drill="0.9906"/>
<wire x1="-1.4478" y1="-2.7178" x2="-1.0668" y2="-2.7178" width="0.1524" layer="21"/>
<wire x1="-3.6322" y1="-1.8288" x2="1.143" y2="-1.27" width="0" layer="21" curve="-193"/>
<wire x1="1.143" y1="-1.27" x2="0.9906" y2="-2.1082" width="0" layer="21" curve="-20"/>
<wire x1="-3.2004" y1="-2.7178" x2="0.6604" y2="-2.7178" width="0.1524" layer="51"/>
<wire x1="-3.2004" y1="-2.7178" x2="0.6604" y2="-2.7178" width="0" layer="51" curve="-253"/>
<text x="-6.0198" y="2.0574" size="2.0828" layer="25" ratio="10" rot="SR0">&gt;NAME</text>
<text x="-7.0104" y="-6.0452" size="2.0828" layer="27" ratio="10" rot="SR0">&gt;VALUE</text>
</package>
</packages>
<symbols>
<symbol name="BC337-25">
<pin name="C" x="-17.78" y="0" length="middle" direction="pas"/>
<pin name="E" x="20.32" y="0" length="middle" direction="pas" rot="R180"/>
<pin name="B" x="2.54" y="-12.7" length="middle" direction="pas" rot="R90"/>
<wire x1="-12.7" y1="7.62" x2="-12.7" y2="-7.62" width="0.4064" layer="94"/>
<wire x1="-12.7" y1="-7.62" x2="15.24" y2="-7.62" width="0.4064" layer="94"/>
<wire x1="15.24" y1="-7.62" x2="15.24" y2="7.62" width="0.4064" layer="94"/>
<wire x1="15.24" y1="7.62" x2="-12.7" y2="7.62" width="0.4064" layer="94"/>
<text x="-3.5052" y="9.2964" size="2.0828" layer="95" ratio="10" rot="SR0">&gt;NAME</text>
<text x="-3.1242" y="-20.3962" size="2.0828" layer="96" ratio="10" rot="SR0">&gt;VALUE</text>
</symbol>
</symbols>
<devicesets>
<deviceset name="BC337-25" prefix="U">
<description>NPN Epitaxial Silicon Transistor</description>
<gates>
<gate name="A" symbol="BC337-25" x="0" y="0"/>
</gates>
<devices>
<device name="" package="TO127P254X732-3">
<connects>
<connect gate="A" pin="B" pad="2"/>
<connect gate="A" pin="C" pad="1"/>
<connect gate="A" pin="E" pad="3"/>
</connects>
<technologies>
<technology name="">
<attribute name="MPN" value="BC337-25" constant="no"/>
<attribute name="OC_FARNELL" value="1228215" constant="no"/>
<attribute name="OC_NEWARK" value="67K0076" constant="no"/>
<attribute name="PACKAGE" value="TO-92" constant="no"/>
<attribute name="SUPPLIER" value="Fairchild" constant="no"/>
</technology>
</technologies>
</device>
</devices>
</deviceset>
</devicesets>
</library>
</drawing>
</eagle>
